Processando instancia "D:/workspace/SOPv5/instances/rbg150a.sop"...
Instancia carregada! Resolvendo problema...
-- SOLUCAO ENCONTRADA --
Minima distancia percorrida: 2279
Caminho percorrido: [0, 3, 1, 11, 6, 8, 5, 10, 2, 4, 9, 7, 20, 18, 19, 12, 17, 15, 14, 13, 16, 23, 21, 26, 25, 24, 27, 22, 28, 36, 30, 35, 34, 29, 33, 32, 31, 37, 43, 44, 38, 39, 40, 42, 45, 41, 47, 46, 50, 53, 52, 54, 55, 48, 51, 49, 58, 56, 59, 57, 62, 60, 61, 66, 69, 63, 64, 70, 65, 72, 68, 71, 67, 73, 74, 75, 77, 76, 82, 81, 78, 80, 83, 79, 85, 84, 89, 86, 88, 87, 90, 93, 92, 91, 94, 103, 98, 100, 97, 101, 102, 99, 96, 107, 108, 95, 104, 105, 110, 106, 109, 111, 118, 112, 116, 115, 114, 113, 125, 124, 117, 126, 123, 122, 119, 121, 120, 132, 130, 129, 128, 127, 144, 131, 136, 133, 137, 145, 139, 140, 134, 138, 135, 142, 143, 141, 146, 149, 147, 150, 148, 151]
Processo terminado em 69081ms

Processando instancia "D:/workspace/SOPv5/instances/rbg150a.sop"...
Instancia carregada! Resolvendo problema...
-- SOLUCAO ENCONTRADA --
Minima distancia percorrida: 2435
Caminho percorrido: [0, 2, 1, 8, 4, 5, 6, 7, 11, 3, 13, 12, 10, 9, 22, 21, 20, 17, 15, 16, 14, 23, 19, 24, 18, 26, 25, 27, 34, 28, 32, 33, 30, 36, 31, 29, 35, 37, 39, 44, 42, 41, 43, 40, 38, 45, 51, 49, 50, 46, 53, 52, 47, 54, 48, 55, 59, 56, 62, 63, 57, 58, 60, 67, 61, 69, 70, 68, 65, 64, 71, 66, 72, 73, 74, 77, 75, 76, 79, 78, 85, 84, 83, 80, 81, 82, 87, 89, 88, 86, 92, 93, 108, 91, 94, 95, 96, 90, 107, 97, 103, 101, 104, 105, 99, 100, 102, 98, 115, 110, 109, 111, 114, 106, 120, 112, 116, 118, 125, 121, 113, 124, 122, 119, 117, 123, 132, 128, 127, 126, 133, 129, 135, 138, 144, 134, 131, 130, 141, 140, 139, 143, 145, 136, 137, 142, 146, 147, 149, 148, 150, 151]
Processo terminado em 72253ms

Processando instancia "D:/workspace/SOPv5/instances/rbg150a.sop"...
Instancia carregada! Resolvendo problema...
-- SOLUCAO ENCONTRADA --
Minima distancia percorrida: 2327
Caminho percorrido: [0, 6, 1, 2, 3, 11, 8, 4, 10, 9, 5, 7, 19, 12, 15, 20, 18, 17, 16, 14, 24, 13, 22, 27, 25, 23, 21, 26, 31, 35, 30, 33, 36, 29, 28, 32, 37, 34, 44, 43, 38, 40, 39, 42, 41, 48, 51, 45, 52, 46, 53, 50, 54, 55, 49, 47, 58, 57, 59, 56, 63, 65, 60, 61, 68, 66, 69, 62, 67, 64, 71, 70, 73, 72, 75, 76, 78, 77, 74, 79, 80, 83, 82, 81, 86, 85, 84, 93, 91, 89, 92, 87, 90, 88, 96, 94, 101, 102, 97, 95, 99, 105, 107, 98, 103, 108, 100, 106, 111, 109, 104, 113, 110, 112, 115, 114, 116, 119, 124, 118, 117, 123, 121, 120, 125, 122, 127, 132, 130, 126, 129, 131, 128, 133, 140, 141, 139, 144, 135, 137, 145, 134, 136, 138, 148, 142, 143, 146, 147, 150, 149, 151]
Processo terminado em 68530ms

Processando instancia "D:/workspace/SOPv5/instances/rbg150a.sop"...
Instancia carregada! Resolvendo problema...
-- SOLUCAO ENCONTRADA --
Minima distancia percorrida: 2321
Caminho percorrido: [0, 1, 2, 4, 5, 6, 3, 11, 7, 10, 12, 14, 8, 15, 9, 17, 23, 13, 24, 21, 18, 19, 16, 22, 25, 27, 26, 20, 30, 36, 33, 29, 28, 32, 31, 37, 34, 35, 43, 41, 42, 44, 39, 38, 40, 45, 51, 49, 47, 53, 46, 54, 55, 50, 48, 52, 58, 63, 61, 59, 56, 62, 57, 66, 60, 64, 68, 69, 65, 72, 67, 70, 71, 75, 73, 78, 77, 76, 74, 79, 82, 81, 83, 80, 85, 84, 89, 88, 91, 86, 92, 87, 94, 108, 90, 93, 100, 99, 95, 101, 98, 96, 107, 103, 97, 102, 104, 106, 115, 109, 111, 110, 105, 121, 116, 125, 118, 117, 113, 122, 112, 124, 120, 119, 114, 123, 128, 132, 127, 126, 129, 136, 134, 138, 131, 130, 137, 139, 135, 144, 141, 140, 133, 146, 145, 148, 142, 147, 149, 143, 150, 151]
Processo terminado em 65125ms

Processando instancia "D:/workspace/SOPv5/instances/rbg150a.sop"...
Instancia carregada! Resolvendo problema...
-- SOLUCAO ENCONTRADA --
Minima distancia percorrida: 2350
Caminho percorrido: [0, 7, 4, 2, 10, 11, 6, 3, 1, 9, 5, 8, 17, 18, 15, 14, 12, 13, 16, 19, 20, 25, 22, 27, 26, 24, 21, 23, 31, 30, 28, 29, 33, 35, 34, 32, 37, 36, 40, 38, 39, 43, 41, 44, 42, 51, 46, 45, 53, 50, 48, 55, 49, 47, 56, 52, 54, 60, 61, 58, 63, 62, 59, 57, 65, 70, 64, 66, 69, 68, 67, 71, 72, 73, 74, 77, 75, 76, 81, 82, 79, 78, 83, 80, 86, 85, 84, 87, 92, 91, 90, 88, 93, 89, 108, 97, 100, 99, 98, 94, 101, 96, 102, 95, 105, 107, 109, 104, 110, 103, 106, 114, 113, 115, 111, 122, 118, 119, 116, 124, 120, 125, 112, 117, 126, 121, 123, 128, 129, 131, 130, 127, 137, 132, 139, 133, 134, 141, 135, 136, 145, 140, 143, 138, 144, 142, 148, 146, 149, 147, 150, 151]
Processo terminado em 66801ms

Processando instancia "D:/workspace/SOPv5/instances/rbg150a.sop"...
Instancia carregada! Resolvendo problema...
-- SOLUCAO ENCONTRADA --
Minima distancia percorrida: 2247
Caminho percorrido: [0, 11, 7, 2, 4, 3, 6, 1, 10, 5, 8, 9, 17, 18, 12, 15, 14, 21, 19, 16, 13, 27, 20, 25, 22, 26, 24, 23, 31, 29, 28, 32, 33, 34, 36, 30, 35, 37, 43, 38, 39, 44, 42, 40, 45, 41, 53, 46, 55, 51, 49, 48, 52, 54, 50, 47, 63, 60, 56, 58, 61, 59, 57, 62, 69, 67, 65, 70, 64, 68, 71, 66, 73, 72, 75, 77, 76, 74, 80, 79, 78, 85, 84, 83, 82, 81, 88, 87, 86, 90, 92, 91, 96, 89, 99, 107, 98, 100, 94, 93, 97, 103, 95, 105, 102, 104, 101, 108, 111, 110, 106, 117, 109, 116, 121, 120, 122, 112, 125, 115, 124, 118, 114, 113, 119, 129, 130, 123, 128, 126, 127, 135, 131, 136, 133, 134, 139, 144, 132, 143, 142, 141, 137, 138, 146, 140, 145, 147, 149, 148, 150, 151]
Processo terminado em 65415ms

Processando instancia "D:/workspace/SOPv5/instances/rbg150a.sop"...
Instancia carregada! Resolvendo problema...
-- SOLUCAO ENCONTRADA --
Minima distancia percorrida: 2264
Caminho percorrido: [0, 11, 8, 4, 6, 3, 1, 7, 2, 9, 12, 5, 14, 10, 17, 15, 18, 19, 16, 22, 20, 24, 21, 13, 26, 23, 27, 25, 29, 28, 32, 35, 34, 36, 33, 31, 30, 37, 39, 41, 40, 43, 44, 42, 38, 45, 47, 52, 51, 49, 53, 48, 55, 46, 54, 50, 58, 56, 59, 57, 61, 63, 60, 64, 68, 69, 62, 70, 66, 65, 72, 71, 67, 74, 75, 73, 76, 77, 79, 82, 81, 80, 78, 83, 85, 84, 86, 94, 87, 88, 89, 95, 93, 92, 90, 91, 96, 99, 108, 102, 107, 104, 100, 98, 103, 97, 101, 105, 109, 106, 111, 110, 113, 125, 114, 118, 117, 112, 119, 124, 122, 115, 116, 121, 120, 128, 123, 129, 127, 126, 136, 130, 133, 134, 144, 138, 131, 135, 132, 142, 143, 141, 139, 145, 140, 137, 149, 147, 148, 146, 150, 151]
Processo terminado em 67080ms


Processando instancia "D:/workspace/SOPv5/instances/rbg150a.sop"...
Instancia carregada! Resolvendo problema...
-- SOLUCAO ENCONTRADA --
Minima distancia percorrida: 2164
Caminho percorrido: [0, 3, 6, 1, 5, 10, 8, 4, 11, 7, 9, 2, 18, 15, 14, 12, 24, 21, 13, 16, 22, 19, 17, 20, 25, 23, 27, 26, 33, 31, 28, 29, 30, 34, 36, 35, 32, 37, 40, 39, 38, 45, 44, 42, 41, 43, 47, 50, 55, 51, 49, 48, 46, 52, 54, 53, 60, 58, 59, 56, 57, 67, 62, 63, 65, 64, 61, 66, 72, 68, 69, 70, 71, 73, 75, 77, 76, 74, 82, 81, 78, 83, 80, 79, 85, 86, 84, 94, 90, 92, 91, 93, 89, 88, 87, 99, 100, 96, 108, 95, 101, 104, 107, 102, 97, 98, 103, 105, 109, 111, 114, 106, 110, 112, 119, 125, 115, 122, 116, 124, 117, 118, 113, 121, 120, 127, 123, 131, 128, 129, 126, 135, 130, 139, 138, 134, 132, 133, 140, 142, 141, 144, 136, 137, 145, 148, 146, 149, 147, 143, 150, 151]
Processo terminado em 70219ms

Processando instancia "D:/workspace/SOPv5/instances/rbg150a.sop"...
Instancia carregada! Resolvendo problema...
-- SOLUCAO ENCONTRADA --
Minima distancia percorrida: 2291
Caminho percorrido: [0, 3, 6, 1, 7, 9, 5, 11, 8, 4, 10, 2, 15, 14, 19, 13, 16, 20, 17, 18, 12, 25, 22, 23, 24, 21, 26, 27, 32, 30, 33, 28, 31, 29, 36, 34, 35, 37, 39, 38, 40, 43, 41, 45, 44, 42, 47, 50, 55, 48, 52, 53, 46, 51, 49, 54, 56, 58, 57, 59, 64, 60, 61, 66, 68, 63, 65, 62, 70, 67, 69, 72, 71, 73, 78, 75, 74, 77, 76, 83, 80, 79, 81, 82, 85, 84, 89, 88, 86, 92, 87, 94, 91, 90, 108, 93, 100, 101, 99, 107, 96, 97, 98, 95, 102, 103, 105, 109, 111, 110, 112, 104, 106, 120, 118, 114, 115, 117, 113, 121, 123, 125, 122, 119, 124, 116, 130, 129, 132, 126, 127, 128, 134, 131, 141, 137, 133, 135, 138, 144, 140, 136, 145, 143, 139, 147, 142, 149, 148, 146, 150, 151]
Processo terminado em 72077ms

Processando instancia "D:/workspace/SOPv5/instances/rbg150a.sop"...
Instancia carregada! Resolvendo problema...
-- SOLUCAO ENCONTRADA --
Minima distancia percorrida: 2332
Caminho percorrido: [0, 10, 3, 1, 4, 11, 5, 6, 7, 2, 13, 14, 8, 9, 12, 15, 19, 16, 17, 23, 24, 18, 25, 27, 22, 26, 21, 20, 35, 34, 28, 32, 30, 29, 31, 36, 33, 37, 40, 42, 44, 43, 39, 41, 38, 46, 51, 45, 53, 55, 47, 48, 52, 50, 54, 49, 58, 56, 63, 60, 59, 57, 68, 61, 69, 66, 62, 70, 65, 64, 67, 71, 72, 73, 76, 77, 75, 74, 78, 79, 85, 84, 83, 82, 81, 80, 92, 91, 86, 89, 88, 87, 90, 108, 94, 96, 95, 93, 107, 101, 98, 100, 97, 105, 99, 102, 109, 104, 103, 115, 112, 111, 110, 106, 122, 116, 121, 120, 119, 113, 114, 118, 125, 124, 117, 126, 123, 127, 129, 128, 130, 135, 131, 133, 132, 145, 142, 138, 144, 136, 134, 141, 137, 139, 146, 140, 147, 149, 148, 143, 150, 151]
Processo terminado em 74035ms